; Engine configuration file.
; It's best edited using the editor UI and not directly,
; since the parameters that go here are not all obvious.
;
; Format:
;   [section] ; section goes between []
;   param=value ; assign values to parameters

config_version=5

[application]

config/name="SpaceGame"
run/main_scene="res://ship/editor/ship_editor.tscn"
config/features=PackedStringArray("4.2", "Forward Plus")
boot_splash/show_image=false
config/icon="res://icon.svg"

[autoload]

Panku="*res://addons/panku_console/console.tscn"
Server="*res://networking/server.gd"
RunConfigManager="*res://addons/run-configs/run-config-manager.gd"

[debug]

gdscript/warnings/unassigned_variable=0
gdscript/warnings/unused_variable=0
gdscript/warnings/unused_local_constant=0
gdscript/warnings/unused_private_class_variable=0
gdscript/warnings/unused_parameter=0
gdscript/warnings/unused_signal=0
multirun/number_of_windows=2
multirun/add_custom_args=true
multirun/window_args=["host", "127.0.0.1"]

[display]

window/size/viewport_width=683
window/size/viewport_height=384
window/size/always_on_top=true
window/stretch/mode="canvas_items"
window/stretch/aspect="expand"

[editor_plugins]

enabled=PackedStringArray("res://addons/Todo_Manager/plugin.cfg", "res://addons/cider_wiki/plugin.cfg", "res://addons/panku_console/plugin.cfg", "res://addons/phantom_camera/plugin.cfg", "res://addons/run-configs/plugin.cfg")

[input]

cam_orbit={
"deadzone": 0.5,
"events": [Object(InputEventMouseButton,"resource_local_to_scene":false,"resource_name":"","device":-1,"window_id":0,"alt_pressed":false,"shift_pressed":false,"ctrl_pressed":false,"meta_pressed":false,"button_mask":0,"position":Vector2(0, 0),"global_position":Vector2(0, 0),"factor":1.0,"button_index":3,"canceled":false,"pressed":false,"double_click":false,"script":null)
]
}
cam_zoom_in={
"deadzone": 0.5,
"events": [Object(InputEventMouseButton,"resource_local_to_scene":false,"resource_name":"","device":-1,"window_id":0,"alt_pressed":false,"shift_pressed":false,"ctrl_pressed":false,"meta_pressed":false,"button_mask":0,"position":Vector2(0, 0),"global_position":Vector2(0, 0),"factor":1.0,"button_index":4,"canceled":false,"pressed":false,"double_click":false,"script":null)
]
}
cam_zoom_out={
"deadzone": 0.5,
"events": [Object(InputEventMouseButton,"resource_local_to_scene":false,"resource_name":"","device":-1,"window_id":0,"alt_pressed":false,"shift_pressed":false,"ctrl_pressed":false,"meta_pressed":false,"button_mask":0,"position":Vector2(0, 0),"global_position":Vector2(0, 0),"factor":1.0,"button_index":5,"canceled":false,"pressed":false,"double_click":false,"script":null)
]
}

[run_configs]

data/configs=["{\"composite_configs\":[],\"custom_scene\":\"res://ship/editor/ship_editor.tscn\",\"environment_variables\":{\"TEST\":\"ShipEditor\"},\"name\":\"ShipEditor\",\"play_mode\":2}", "{\"composite_configs\":[],\"custom_scene\":\"res://test/A.tscn\",\"environment_variables\":{\"TEST\":\"A\",\"TEST2\":\"AA\"},\"name\":\"A\",\"play_mode\":2}", "{\"composite_configs\":[],\"custom_scene\":\"\",\"environment_variables\":{\"TEST2\":\"CC\"},\"name\":\"C\",\"play_mode\":1}", "{\"composite_configs\":[\"ShipEditor\",\"A\",\"C\"],\"custom_scene\":\"\",\"environment_variables\":{\"TEST\":\"Multiple\"},\"name\":\"Multiple\",\"play_mode\":3}"]
data/current=3
