[gd_scene load_steps=2 format=3 uid="uid://dk78trg4y73gd"]

[ext_resource type="PackedScene" uid="uid://uke2lrgf4x8k" path="res://ship/tiles/default_floor.glb" id="1_uuy1w"]

[node name="MeshLibrary" type="Node3D"]

[node name="default_floor" parent="." instance=ExtResource("1_uuy1w")]
transform = Transform3D(1, 0, 0, 0, -4.37114e-08, -1, 0, 1, -4.37114e-08, 0, -1, 0)
